0.999	1362.7	14.4131	1363.65	14.4049	1362.7	14.4131	5	70	5	1	0.8	100000	83		0.978262	0.00849354
0.999	1343.2	50.5665	1344.1	50.6635	1343.2	50.5665	5	70	5	2	0.8	100000	83		0.963628	0.0363224
0.999	1369	10.5298	1369.95	10.522	1369	10.5298	5	70	5	4	0.8	100000	83		0.981205	0.00657953
0.999	1366.4	10.2424	1367.35	10.2283	1366.4	10.2424	5	70	5	8	0.8	100000	83		0.980494	0.00590197
0.999	1368.45	7.97889	1369.35	7.97587	1368.45	7.97889	5	70	5	16	0.8	100000	83		0.98192	0.00504037
0.999	1188.9	51.0466	1189.8	51.1364	1188.9	51.0466	5	70	5	32	0.8	100000	83		0.861985	0.0345981
0.999	472	28.8731	472	28.8731	472	28.8731	5	70	5	64	0.8	100000	83		0.347366	0.0232232
0.999	50.85	2.36926	50.85	2.36926	50.85	2.36926	5	70	5	128	0.8	100000	83		0.0371851	0.00214724