0.999	50.2	1.74865	50.2	1.74865	50.2	1.74865	5	70	5	1	0.5	100000	83		0.0372597	0.00250647
0.999	789.35	119.696	789.65	119.882	789.35	119.696	5	70	5	1	0.6	100000	83		0.57895	0.0853474
0.999	1255.6	54.7832	1256.5	54.8427	1255.6	54.7832	5	70	5	1	0.7	100000	83		0.908046	0.0373683
0.999	1372.65	8.30943	1373.55	8.27139	1372.65	8.30943	5	70	5	1	0.8	100000	83		0.98522	0.00465758
0.999	1384.75	4.45936	1385.7	4.49903	1384.75	4.45936	5	70	5	1	0.9	100000	83		0.99155	0.00244583
0.999	1392.7	5.66684	1393.55	5.65209	1392.7	5.66684	5	70	5	1	1	100000	83		0.996032	0.00316833
0.999	1395.3	2.53377	1396.05	2.50059	1395.3	2.53377	5	70	5	1	1.1	100000	83		0.997469	0.00134361