5	1.01	0.9	0.5	3	30	70	5	2000	0.04	10	100000	83	0.999		1080.85	39.7405	0.789648	0.0276918	0.567012	0.0264157
5	1.01	0.9	0.5	3	30	70	5	2000	0.04	10	100000	83	0.99		1155.15	13.7291	0.839706	0.00821294	0.639119	0.0112258
5	1.01	0.9	0.5	3	30	70	5	2000	0.04	10	100000	83	0.9		1240.55	10.3297	0.897936	0.00765169	0.711202	0.00339439
5	1.01	0.9	0.5	3	30	70	5	2000	0.04	10	100000	83	0.8		1242.65	12.8011	0.90114	0.0084996	0.709038	0.00451682
5	1.01	0.9	0.5	3	30	70	5	2000	0.04	10	100000	83	0.7		1232.3	17.0251	0.892342	0.0105977	0.714825	0.00642706
5	1.01	0.9	0.5	3	30	70	5	2000	0.04	10	100000	83	0.6		1242.65	12.8011	0.90114	0.0084996	0.709038	0.00451682