5	2	0.5	0.5	3	30	70	5	2000	0.04	4	100000	83	0.999		612.15	38.3267	0.448107	0.0278073	0.585498	0.0389846
5	2	0.5	0.5	3	30	70	5	2000	0.04	8	100000	83	0.999		709.35	15.0845	0.523305	0.0120822	0.709821	0.0231608
5	2	0.5	0.5	3	30	70	5	2000	0.04	16	100000	83	0.999		716.8	40.4703	0.52726	0.0291625	0.742983	0.0527916
5	2	0.5	0.5	3	30	70	5	2000	0.04	32	100000	83	0.999		753.3	23.5496	0.549386	0.0191495	0.768956	0.0341621
5	2	0.5	0.5	3	30	70	5	2000	0.04	64	100000	83	0.999		705.65	61.4607	0.516238	0.0460034	0.721	0.0720058
5	2	0.5	0.5	3	30	70	5	2000	0.04	128	100000	83	0.999		781.85	25.697	0.576918	0.0180388	0.79991	0.0336413