2	0.5	0.5	20	0.0664	3	3	83		260	0.34065	0.280375	0	40
2	0.5	0.5	40	0.0664	3	3	83		180	0.2677	0.280813	0	120
2	0.5	0.5	60	0.0664	3	3	83		136	0.1799	0.318969	0	164
2	0.5	0.5	80	0.0664	3	3	83		106	0.15325	0.279344	0	194
2	0.5	0.5	100	0.0664	3	3	83		84	0.0813	0.260687	0	216
2	0.5	0.5	120	0.0664	3	3	83		58	0.0798	0.260531	0	242
